rok,stará EU,první vlna,druhá vlna,rokdata
12/05,48,68,,"Date.UTC(2005,12,1)"
06/06,54,65,,"Date.UTC(2006,6,1)"
12/06,52,81,,"Date.UTC(2006,12,1)"
06/07,63,91,2,"Date.UTC(2007,6,1)"
12/07,63,103,5,"Date.UTC(2007,12,1)"
06/08,58,95,9,"Date.UTC(2008,6,1)"
12/08,83,76,17,"Date.UTC(2008,12,1)"
06/09,76,71,14,"Date.UTC(2009,6,1)"
12/09,76,57,13,"Date.UTC(2009,12,1)"
03/10,81,73,15,"Date.UTC(2010,3,1)"
06/10,86,72,15,"Date.UTC(2010,6,1)"
09/10,83,86,10,"Date.UTC(2010,9,1)"
12/10,76,86,10,"Date.UTC(2010,12,1)"
03/11,76,82,8,"Date.UTC(2011,3,1)"
06/11,78,86,7,"Date.UTC(2011,6,1)"
09/11,79,75,11,"Date.UTC(2011,9,1)"
12/11,83,77,13,"Date.UTC(2011,12,1)"
03/12,82,71,12,"Date.UTC(2012,3,1)"
06/12,82,63,12,"Date.UTC(2012,6,1)"
09/12,79,59,10,"Date.UTC(2012,9,1)"
12/12,85,60,11,"Date.UTC(2012,12,1)"
03/13,92,63,13,"Date.UTC(2013,3,1)"
06/13,96,66,20,"Date.UTC(2013,6,1)"
09/13,107,73,25,"Date.UTC(2013,9,1)"
12/13,104,70,25,"Date.UTC(2013,12,1)"
03/14,112,68,30,"Date.UTC(2014,3,1)"
06/14,113,73,34,"Date.UTC(2014,6,1)"
09/14,124,76,40,"Date.UTC(2014,9,1)"
12/14,129,80,49,"Date.UTC(2014,12,1)"
03/15,127,81,57,"Date.UTC(2015,3,1)"
06/15,133,73,54,"Date.UTC(2015,6,1)"
09/15,130,69,55,"Date.UTC(2015,9,1)"
