země,bilance (mil. eur),bilance (% GNI)
Německo,-15501.6,"-0,52%"
Francie,-7164.5,"-0,33%"
Spojené královsví,-4929.8,"-0,23%"
Nizozemsko,-4711,"-0,71%"
Itálie,-4467,"-0,28%"
Švédsko,-2312.7,"-0,52%"
Belgie,-1478.1,"-0,37%"
Rakousko,-1240.6,"-0,38%"
Dánsko,-836,"-0,32%"
Finsko,-809,"-0,40%"
Irsko,38.8,"+0,02%"
Lucembursko,80.1,"+0,27%"
Kypr,114.8,"+0,69%"
Chrvatsko,173.4,"+0,42%"
Malta,179.4,"+2,35%"
Estonsko,473.8,"+2,49%"
Slovinsko,794.4,"+2,17%"
Lotyšsko,799.8,"+3,35%"
Slovensko,1010.1,"+1,37%"
Španělsko,1090.6,"+0,10%"
Litva,1543.2,"+4,38%"
Bulharsko,1824.3,"+4,45%"
Česko,3004.2,"+2,08%"
Portugalsko,3211.3,"+1,88%"
Rumunsko,4519.9,"+3,09%"
Řecko,5162.6,"+2,89%"
Maďarsko,5681.6,"+5,64%"
Polsko,13748.1,"+3,47%"
