rok,EU,mimo EU,UK
1975,3, 40,-84
1976,1,30,-50
1977,0,25,-71
1978,3,45,-53
1979,5,49,-48
1980,-4,32,-83
1981,-4,28,-104
1982,6,26,-88
1983,2,42,-26
1984,9,35,- 7
1985,11,46,1
1986,22,26,-11
1987,4,30,-32
1988,4,29,-54
1989,9,53,-18
1990,7,59,-30
1991,-1,89,-44
1992,5,44,-62
1993,4,58,-62
1994,9,85,-16
1995,23,104,-51
1996,28,88,-62
1997,18,88,-59
1998,33,129,-22
1999,8,179,-24
2000,6,214,-62
2001,7,213,-48
2002,7,234,-88
2003,15,224,-91
2004,87,266,-107
2005,96,198,-88
2006,104,218,-124
2007,127,204,-97
2008,63,187,-87
2009,58,184,-44
2010,77,217,-43
2011,82,204,-70
2012,82,157,-63
2013,123,142,-57
2014,174,194,-55
2015,172,191,-40
